[ 0.00188951 , 0.0023861 ]
[ 0.00162308 , 0.99625117]
[ 0.99882227 , 0.99567407]
[ 0.9959175  , 0.00481846]
[ 0.46973515 , 0.5036155 ]






[(array([[[ 0.26, -0.5 , -0.5 , -0.5 ],
        [-0.5 , -0.5 , -0.5 , -0.5 ],
        [-0.5 , -0.5 , -0.5 , -0.5 ],
        [-0.5 , -0.5 , -0.5 , -0.5 ]],

       [[-0.5 , -0.5 , -0.5 , -0.5 ],
        [-0.5 , -0.5 , -0.5 , -0.5 ],
        [-0.5 ,  0.13, -0.5 , -0.5 ],
        [-0.5 , -0.5 , -0.5 , -0.5 ]],

       [[-0.5 , -0.5 , -0.5 , -0.5 ],
        [-0.5 , -0.5 ,  0.77, -0.5 ],
        [-0.5 , -0.5 , -0.5 , -0.5 ],
        [-0.5 , -0.5 , -0.5 , -0.5 ]],

       [[-0.5 , -0.5 , -0.5 , -0.5 ],
        [-0.5 , -0.5 , -0.5 , -0.5 ],
        [-0.5 , -0.5 ,  0.99, -0.5 ],
        [-0.5 , -0.5 , -0.5 , -0.5 ]]]), array([ 0.00188951,  0.0023861 ], dtype=float32)), (array([[[-0.5 , -0.5 , -0.5 ,  0.26],
        [-0.5 , -0.5 , -0.5 , -0.5 ],
        [-0.5 , -0.5 , -0.5 , -0.5 ],
        [-0.5 , -0.5 , -0.5 , -0.5 ]],

       [[-0.5 , -0.5 , -0.5 , -0.5 ],
        [-0.5 , -0.5 , -0.5 , -0.5 ],
        [-0.5 ,  0.13, -0.5 , -0.5 ],
        [-0.5 , -0.5 , -0.5 , -0.5 ]],

       [[-0.5 , -0.5 , -0.5 , -0.5 ],
        [-0.5 , -0.5 ,  0.77, -0.5 ],
        [-0.5 , -0.5 , -0.5 , -0.5 ],
        [-0.5 , -0.5 , -0.5 , -0.5 ]],

       [[-0.5 , -0.5 , -0.5 , -0.5 ],
        [-0.5 , -0.5 , -0.5 , -0.5 ],
        [-0.5 , -0.5 ,  0.99, -0.5 ],
        [-0.5 , -0.5 , -0.5 , -0.5 ]]]), array([ 0.00162308,  0.99625117], dtype=float32)), (array([[[-0.5 , -0.5 , -0.5 ,  0.26],
        [-0.5 , -0.5 , -0.5 , -0.5 ],
        [-0.5 , -0.5 , -0.5 , -0.5 ],
        [-0.5 , -0.5 , -0.5 , -0.5 ]],

       [[-0.5 , -0.5 , -0.5 , -0.5 ],
        [-0.5 ,  0.13, -0.5 , -0.5 ],
        [-0.5 , -0.5 , -0.5 , -0.5 ],
        [-0.5 , -0.5 , -0.5 , -0.5 ]],

       [[-0.5 , -0.5 ,  0.77, -0.5 ],
        [-0.5 , -0.5 , -0.5 , -0.5 ],
        [-0.5 , -0.5 , -0.5 , -0.5 ],
        [-0.5 , -0.5 , -0.5 , -0.5 ]],

       [[ 0.99, -0.5 , -0.5 , -0.5 ],
        [-0.5 , -0.5 , -0.5 , -0.5 ],
        [-0.5 , -0.5 , -0.5 , -0.5 ],
        [-0.5 , -0.5 , -0.5 , -0.5 ]]]), array([ 0.99882227,  0.99567407], dtype=float32)), (array([[[ 0.26, -0.5 , -0.5 , -0.5 ],
        [-0.5 , -0.5 , -0.5 , -0.5 ],
        [-0.5 , -0.5 , -0.5 , -0.5 ],
        [-0.5 , -0.5 , -0.5 , -0.5 ]],

       [[-0.5 , -0.5 , -0.5 , -0.5 ],
        [-0.5 , -0.5 , -0.5 , -0.5 ],
        [-0.5 , -0.5 ,  0.13, -0.5 ],
        [-0.5 , -0.5 , -0.5 , -0.5 ]],

       [[-0.5 , -0.5 ,  0.77, -0.5 ],
        [-0.5 , -0.5 , -0.5 , -0.5 ],
        [-0.5 , -0.5 , -0.5 , -0.5 ],
        [-0.5 , -0.5 , -0.5 , -0.5 ]],

       [[-0.5 , -0.5 , -0.5 , -0.5 ],
        [-0.5 , -0.5 , -0.5 , -0.5 ],
        [-0.5 , -0.5 , -0.5 ,  0.99],
        [-0.5 , -0.5 , -0.5 , -0.5 ]]]), array([ 0.9959175 ,  0.00481846], dtype=float32)), (array([[[-0.5 , -0.5 , -0.5 , -0.5 ],
        [-0.5 , -0.5 ,  0.26, -0.5 ],
        [-0.5 , -0.5 , -0.5 , -0.5 ],
        [-0.5 , -0.5 , -0.5 , -0.5 ]],

       [[-0.5 , -0.5 , -0.5 , -0.5 ],
        [-0.5 , -0.5 , -0.5 , -0.5 ],
        [-0.5 , -0.5 ,  0.13, -0.5 ],
        [-0.5 , -0.5 , -0.5 , -0.5 ]],

       [[-0.5 , -0.5 , -0.5 , -0.5 ],
        [-0.5 , -0.5 , -0.5 ,  0.77],
        [-0.5 , -0.5 , -0.5 , -0.5 ],
        [-0.5 , -0.5 , -0.5 , -0.5 ]],

       [[-0.5 , -0.5 , -0.5 , -0.5 ],
        [-0.5 , -0.5 , -0.5 , -0.5 ],
        [-0.5 , -0.5 , -0.5 , -0.5 ],
        [-0.5 ,  0.99, -0.5 , -0.5 ]]]), array([ 0.46973515,  0.5036155 ], dtype=float32))]

for middle encoded_skill 
-1.,  1., -1., -1.,  1., -1., -1., -1., -1., -1.,  1., -1., -1., 1., -1., -1., -1.,  1., -1., -1., -1., -1.,  1., -1., -1., -1.,1., -1., -1., -1.,  1., -1.
