[ 0.00681184  0.1818345   0.05565087 ..., -0.23326525 -0.12009396
 -0.47444946]





#####################################################





[ 0.03598223  0.07930297  0.06408839 ...,  0.462758   -0.25850081
 -0.73765385]





#####################################################





[-0.04753871  0.07260248  0.03664837 ..., -0.28315756  0.9553017
 -0.49316132]





#####################################################





[ 0.26580805 -0.07353312 -0.11961418 ..., -0.628932    0.94938117
 -0.19380948]





#####################################################





[ 0.01063151  0.12256961 -0.14084698 ..., -0.17088567 -0.26810721
  0.32817924]





#####################################################





